320-Final
…
merged_vgsales2 <- merged_vgsales2[,-1]
merged_vgsales2 <- merged_vgsales2[,-13]
merged_vgsales2$Platform = factor(merged_vgsales2$Platform)
merged_vgsales2$Genre = factor(merged_vgsales2$Genre)
merged_vgsales2$Publisher = factor(merged_vgsales2$Publisher)
merged_vgsales2$Region = factor(merged_vgsales2$Region)
merged_vgsales2$Rating = factor(merged_vgsales2$Rating)
merged_vgsales2$Year = as.numeric(merged_vgsales2$Year)
merged_vgsales2$User_Score = as.numeric(merged_vgsales2$User_Score)
merged_vgsales2

## # A tibble: 44,865 x 12
##    Platform  Year Genre Publisher Critic_Score User_Score User_Count Rating
##    <fct>    <dbl> <fct> <fct>            <dbl>      <dbl>      <dbl> <fct> 
##  1 Wii       2006 Spor Nintendo            76        8          322 E     
##  2 Wii       2006 Spor Nintendo            76        8          322 E     
##  3 Wii       2006 Spor Nintendo            76        8          322 E     
##  4 Wii       2008 Raci Nintendo            82        8.3        709 E     
##  5 Wii       2008 Raci Nintendo            82        8.3        709 E     
##  6 Wii       2008 Raci Nintendo            82        8.3        709 E     
##  7 Wii       2009 Spor Nintendo            80        8          192 E     
##  8 Wii       2009 Spor Nintendo            80        8          192 E     
##  9 Wii       2009 Spor Nintendo            80        8          192 E     
## 10 DS        2006 Plat Nintendo            89        8.5        431 E     
## #  with 44,855 more rows, and 4 more variables: Region <fct>, sales <dbl>,
## #   gdp <dbl>, pop <dbl>
…
